\relax 
\providecommand\hyper@newdestlabel[2]{}
\providecommand\HyperFirstAtBeginDocument{\AtBeginDocument}
\HyperFirstAtBeginDocument{\ifx\hyper@anchor\@undefined
\global\let\oldcontentsline\contentsline
\gdef\contentsline#1#2#3#4{\oldcontentsline{#1}{#2}{#3}}
\global\let\oldnewlabel\newlabel
\gdef\newlabel#1#2{\newlabelxx{#1}#2}
\gdef\newlabelxx#1#2#3#4#5#6{\oldnewlabel{#1}{{#2}{#3}}}
\AtEndDocument{\ifx\hyper@anchor\@undefined
\let\contentsline\oldcontentsline
\let\newlabel\oldnewlabel
\fi}
\fi}
\global\let\hyper@last\relax 
\gdef\HyperFirstAtBeginDocument#1{#1}
\providecommand*\HyPL@Entry[1]{}
\HyPL@Entry{0<</S/D>>}
\@writefile{toc}{\contentsline {section}{\numberline {1}Introduction}{2}{section.1}}
\@writefile{toc}{\contentsline {section}{\numberline {2}Installing Musik}{2}{section.2}}
\@writefile{toc}{\contentsline {section}{\numberline {3}Using Musik}{2}{section.3}}
\@writefile{toc}{\contentsline {subsection}{\numberline {3.1}Basic notes and durations}{2}{subsection.3.1}}
\@writefile{toc}{\contentsline {subsection}{\numberline {3.2}Commands}{2}{subsection.3.2}}
\@writefile{toc}{\contentsline {subsubsection}{\numberline {3.2.1}addBeatMap}{3}{subsubsection.3.2.1}}
\@writefile{toc}{\contentsline {subsubsection}{\numberline {3.2.2}addInstrument}{3}{subsubsection.3.2.2}}
\@writefile{toc}{\contentsline {subsubsection}{\numberline {3.2.3}beat}{3}{subsubsection.3.2.3}}
\@writefile{toc}{\contentsline {subsubsection}{\numberline {3.2.4}chord}{3}{subsubsection.3.2.4}}
\@writefile{toc}{\contentsline {subsubsection}{\numberline {3.2.5}file}{3}{subsubsection.3.2.5}}
\@writefile{toc}{\contentsline {subsubsection}{\numberline {3.2.6}import}{3}{subsubsection.3.2.6}}
\@writefile{toc}{\contentsline {subsubsection}{\numberline {3.2.7}instrument}{4}{subsubsection.3.2.7}}
\@writefile{toc}{\contentsline {subsubsection}{\numberline {3.2.8}legato}{4}{subsubsection.3.2.8}}
\@writefile{toc}{\contentsline {subsubsection}{\numberline {3.2.9}mode}{4}{subsubsection.3.2.9}}
\@writefile{toc}{\contentsline {subsubsection}{\numberline {3.2.10}newSection}{4}{subsubsection.3.2.10}}
\@writefile{toc}{\contentsline {subsubsection}{\numberline {3.2.11}noPromptFile}{4}{subsubsection.3.2.11}}
\@writefile{toc}{\contentsline {subsubsection}{\numberline {3.2.12}repeat}{4}{subsubsection.3.2.12}}
\@writefile{toc}{\contentsline {subsubsection}{\numberline {3.2.13}saveOnly}{5}{subsubsection.3.2.13}}
\@writefile{toc}{\contentsline {subsubsection}{\numberline {3.2.14}scale}{5}{subsubsection.3.2.14}}
\@writefile{toc}{\contentsline {subsubsection}{\numberline {3.2.15}section}{5}{subsubsection.3.2.15}}
\@writefile{toc}{\contentsline {subsubsection}{\numberline {3.2.16}simul}{5}{subsubsection.3.2.16}}
\@writefile{toc}{\contentsline {subsubsection}{\numberline {3.2.17}slur}{5}{subsubsection.3.2.17}}
\@writefile{toc}{\contentsline {subsubsection}{\numberline {3.2.18}soundbank}{5}{subsubsection.3.2.18}}
\@writefile{toc}{\contentsline {subsubsection}{\numberline {3.2.19}staccato}{5}{subsubsection.3.2.19}}
\gdef \LT@i {\LT@entry 
    {1}{51.33345pt}\LT@entry 
    {1}{112.00017pt}}
\@writefile{toc}{\contentsline {subsubsection}{\numberline {3.2.20}tempo}{6}{subsubsection.3.2.20}}
\@writefile{toc}{\contentsline {subsubsection}{\numberline {3.2.21}transpose}{6}{subsubsection.3.2.21}}
\@writefile{toc}{\contentsline {subsubsection}{\numberline {3.2.22}tuplet}{6}{subsubsection.3.2.22}}
\@writefile{toc}{\contentsline {section}{\numberline {4}Running Musik}{6}{section.4}}
\newlabel{sec:run}{{4}{6}{Running Musik}{section.4}{}}
\newlabel{sec:run@cref}{{[section][4][]4}{6}}
\@writefile{toc}{\contentsline {section}{\numberline {A}Tables}{6}{Appendix.1.A}}
\gdef \LT@ii {\LT@entry 
    {4}{101.63905pt}\LT@entry 
    {1}{44.50012pt}\LT@entry 
    {1}{42.83342pt}}
\@writefile{lot}{\contentsline {table}{\numberline {1}{List of valid durations}}{7}{table.1}}
\newlabel{tab:durations}{{1}{7}{List of valid durations}{table.1}{}}
\newlabel{tab:durations@cref}{{[table][1][]1}{7}}
\gdef \LT@iii {\LT@entry 
    {1}{36.4445pt}\LT@entry 
    {1}{76.03606pt}}
\gdef \LT@iv {\LT@entry 
    {1}{44.50012pt}\LT@entry 
    {4}{61.16684pt}}
\@writefile{lot}{\contentsline {table}{\numberline {2}{Default beat map}}{8}{table.2}}
\newlabel{tab:beats}{{2}{8}{Default beat map}{table.2}{}}
\newlabel{tab:beats@cref}{{[table][2][]2}{8}}
\@writefile{lot}{\contentsline {table}{\numberline {3}{Predefined chords}}{8}{table.3}}
\newlabel{tab:chords}{{3}{8}{Predefined chords}{table.3}{}}
\newlabel{tab:chords@cref}{{[table][3][]3}{8}}
\@writefile{lot}{\contentsline {table}{\numberline {4}{Supported modes}}{8}{table.4}}
\newlabel{tab:modes}{{4}{8}{Supported modes}{table.4}{}}
\newlabel{tab:modes@cref}{{[table][4][]4}{8}}
\gdef \LT@v {\LT@entry 
    {5}{150.24188pt}\LT@entry 
    {1}{47.30565pt}}
\@writefile{lot}{\contentsline {table}{\numberline {5}{List of default instruments}}{11}{table.5}}
\newlabel{tab:insts}{{5}{11}{List of default instruments}{table.5}{}}
\newlabel{tab:insts@cref}{{[table][5][]5}{11}}
